…
Suppose that predictions for one year ahead were needed and the model should use the most recent data from the last 20 years. To setup this resampling scheme:

library(rsample)
roll_rs <- rolling_origin(
  drinks, 
  initial = 12 * 20, 
  assess = 12,
  cumulative = FALSE
  )
nrow(roll_rs)
## [1] 58
roll_rs
## # Rolling origin forecast resampling 
## # A tibble: 58 x 2
##          splits      id
##          <list>   <chr>
##  1 <S3: rsplit> Slice01
##  2 <S3: rsplit> Slice02
##  3 <S3: rsplit> Slice03
##  4 <S3: rsplit> Slice04
##  5 <S3: rsplit> Slice05
##  6 <S3: rsplit> Slice06
##  7 <S3: rsplit> Slice07
##  8 <S3: rsplit> Slice08
##  9 <S3: rsplit> Slice09
## 10 <S3: rsplit> Slice10
## # ... with 48 more rows
…
